<?xml version="1.0" encoding="UTF-8"?>
<!DOCTYPE svg PUBLIC "-//W3C//DTD SVG 1.1//EN" "http://www.w3.org/Graphics/SVG/1.1/DTD/svg11.dtd">
<!-- Creator: CorelDRAW 2018 (64 Bit) -->
<svg xmlns="http://www.w3.org/2000/svg" xml:space="preserve" width="49px" height="40px" version="1.1" style="shape-rendering:geometricPrecision; text-rendering:geometricPrecision; image-rendering:optimizeQuality; fill-rule:evenodd; clip-rule:evenodd"
viewBox="0 0 0.403 0.327"
 xmlns:xlink="http://www.w3.org/1999/xlink">
 <defs>
  <style type="text/css">
   <![CDATA[
    .str0 {stroke:white;stroke-width:0.016;stroke-miterlimit:22.9256}
    .fil1 {fill:#A03335}
    .fil0 {fill:white;fill-rule:nonzero}
   ]]>
  </style>
 </defs>
 <g id="Camada_x0020_1">
  <metadata id="CorelCorpID_0Corel-Layer"/>
  <path class="fil0" d="M0.164 0c0.045,0 0.086,0.018 0.115,0.048 0.03,0.029 0.048,0.07 0.048,0.116 0,0.045 -0.018,0.086 -0.048,0.115 -0.029,0.03 -0.07,0.048 -0.115,0.048 -0.046,0 -0.087,-0.018 -0.116,-0.048 -0.03,-0.029 -0.048,-0.07 -0.048,-0.115 0,-0.046 0.018,-0.087 0.048,-0.116 0.029,-0.03 0.07,-0.048 0.116,-0.048zm0.104 0.059c-0.027,-0.027 -0.064,-0.043 -0.104,-0.043 -0.041,0 -0.078,0.016 -0.105,0.043 -0.027,0.027 -0.043,0.064 -0.043,0.105 0,0.04 0.016,0.077 0.043,0.104 0.027,0.027 0.064,0.043 0.105,0.043 0.04,0 0.077,-0.016 0.104,-0.043 0.027,-0.027 0.043,-0.064 0.043,-0.104 0,-0.041 -0.016,-0.078 -0.043,-0.105z"/>
  <path class="fil0" d="M0.164 0.205c0.009,-0.001 0.014,-0.005 0.014,-0.012 0,-0.005 -0.005,-0.01 -0.014,-0.013 -0.001,0 -0.002,0 -0.002,0.002l0 0.022c0,0.001 0.001,0.001 0.002,0.001zm0 -0.083c-0.01,0.001 -0.016,0.004 -0.016,0.011 0,0.006 0.005,0.01 0.014,0.012 0,0 0.001,0 0.001,0.001 0.001,0 0.001,0 0.002,0 0.001,0 0.001,0 0.001,-0.001l0 -0.022c0,-0.001 0,-0.001 -0.002,-0.001zm0.03 0.035c0.008,0.004 0.014,0.009 0.018,0.015 0.003,0.005 0.005,0.012 0.005,0.02 0,0.027 -0.018,0.041 -0.053,0.043 -0.001,0 -0.002,0 -0.002,0.002l0 0.007c0,0.003 -0.001,0.006 -0.003,0.008 -0.003,0.002 -0.006,0.003 -0.009,0.003l-0.003 0c-0.003,0 -0.006,-0.001 -0.008,-0.003 -0.002,-0.002 -0.004,-0.005 -0.004,-0.008l0 -0.009c0,-0.001 0,-0.002 -0.001,-0.002 -0.004,-0.001 -0.007,-0.002 -0.008,-0.002 -0.003,-0.001 -0.006,-0.003 -0.008,-0.006 -0.002,-0.003 -0.003,-0.006 -0.003,-0.01l0 -0.01c0,-0.003 0.001,-0.005 0.003,-0.006 0.003,-0.001 0.005,-0.002 0.008,-0.001 0.003,0.002 0.006,0.003 0.008,0.004 0.001,0 0.001,-0.001 0.001,-0.002l0 -0.025c0,-0.001 0.001,-0.002 0.001,-0.003 0,-0.001 0,-0.002 -0.001,-0.002 -0.017,-0.009 -0.025,-0.021 -0.025,-0.037 0,-0.012 0.005,-0.022 0.014,-0.03 0.009,-0.007 0.023,-0.011 0.04,-0.011 0.002,0 0.002,-0.001 0.002,-0.002l0 -0.007c0,-0.003 0.001,-0.006 0.004,-0.008 0.002,-0.002 0.005,-0.003 0.008,-0.003l0.003 0c0.003,0 0.006,0.001 0.008,0.003 0.002,0.002 0.004,0.005 0.004,0.008l0 0.009c0,0.001 0,0.002 0.001,0.002 0.001,0 0.002,0.001 0.003,0.001 0.002,0 0.003,0 0.004,0 0.003,0.001 0.006,0.003 0.008,0.005 0.002,0.003 0.003,0.006 0.003,0.01l0 0.009c0,0.003 -0.001,0.005 -0.004,0.007 -0.002,0.001 -0.004,0.002 -0.007,0.001 -0.001,0 -0.002,-0.001 -0.003,-0.001 -0.002,0 -0.003,-0.001 -0.004,-0.001 -0.001,0 -0.001,0 -0.001,0.001l0 0.026c0,0.001 0,0.002 -0.001,0.002 0,0.001 0.001,0.002 0.002,0.003z"/>
  <circle class="fil1 str0" cx="0.327" cy="0.164" r="0.067"/>
  <polygon class="fil0" points="0.313,0.209 0.359,0.164 0.313,0.118 0.295,0.135 0.324,0.164 0.295,0.192 "/>
 </g>
</svg>
