<?xml version="1.0" encoding="UTF-8"?>
<!DOCTYPE svg PUBLIC "-//W3C//DTD SVG 1.1//EN" "http://www.w3.org/Graphics/SVG/1.1/DTD/svg11.dtd">
<!-- Creator: CorelDRAW 2018 (64 Bit) -->
<svg xmlns="http://www.w3.org/2000/svg" xml:space="preserve" width="12px" height="12px" version="1.1" style="shape-rendering:geometricPrecision; text-rendering:geometricPrecision; image-rendering:optimizeQuality; fill-rule:evenodd; clip-rule:evenodd"
viewBox="0 0 0.11 0.113"
 xmlns:xlink="http://www.w3.org/1999/xlink">
 <defs>
  <style type="text/css">
   <![CDATA[
    .fil0 {fill:white}
   ]]>
  </style>
 </defs>
 <g id="Camada_x0020_1">
  <metadata id="CorelCorpID_0Corel-Layer"/>
  <path class="fil0" d="M0.085 0.056c0,0.009 -0.004,0.016 -0.009,0.022 -0.005,0.005 -0.013,0.008 -0.021,0.008 -0.008,0 -0.016,-0.003 -0.021,-0.009 -0.006,-0.005 -0.009,-0.012 -0.009,-0.021 0,0 0,0 0,-0.001 0,-0.008 0.003,-0.015 0.009,-0.02 0.005,-0.005 0.012,-0.009 0.02,-0.009 0,0 0,0 0.001,0 0.01,0.001 0.017,0.004 0.022,0.009 0.005,0.005 0.008,0.013 0.008,0.021zm0.025 -0.024l0 0.049c0,0.009 -0.004,0.017 -0.01,0.022 -0.005,0.006 -0.014,0.01 -0.022,0.01l-0.046 0c-0.009,0 -0.017,-0.004 -0.023,-0.01 -0.005,-0.005 -0.009,-0.013 -0.009,-0.022l0 -0.049c0,-0.009 0.004,-0.017 0.009,-0.023 0.006,-0.005 0.014,-0.009 0.023,-0.009l0.046 0c0.008,0 0.017,0.004 0.022,0.009 0.006,0.006 0.01,0.014 0.01,0.023zm-0.032 -0.024l-0.046 0c-0.006,0 -0.012,0.003 -0.017,0.007 -0.004,0.005 -0.007,0.011 -0.007,0.017l0 0.049c0,0.006 0.003,0.012 0.007,0.017 0.005,0.004 0.011,0.007 0.017,0.007l0.046 0c0.006,0 0.012,-0.003 0.017,-0.007 0.004,-0.005 0.007,-0.011 0.007,-0.017l0 -0.049c0,-0.006 -0.003,-0.012 -0.007,-0.017 -0.005,-0.004 -0.011,-0.007 -0.017,-0.007zm0.015 0.017c0,0.004 -0.004,0.007 -0.007,0.007 -0.004,0 -0.007,-0.003 -0.007,-0.007 0,-0.003 0.003,-0.007 0.007,-0.007 0.003,0 0.007,0.004 0.007,0.007zm-0.024 0.045c0.003,-0.003 0.006,-0.008 0.006,-0.014 0,-0.006 -0.002,-0.011 -0.005,-0.014 -0.004,-0.003 -0.009,-0.005 -0.015,-0.006 0,0 0,0 -0.001,0 -0.005,0 -0.01,0.003 -0.013,0.006 -0.004,0.004 -0.006,0.008 -0.006,0.014 0,0 0,0 0,0 0,0.006 0.002,0.011 0.006,0.014 0.003,0.004 0.008,0.006 0.014,0.006 0.005,0 0.01,-0.002 0.014,-0.006z"/>
 </g>
</svg>
